[
    {
        "id": 0,
        "body": "А ви знали? Ніс та вуха потроху росте протягом усього життя людини."
    },

    {
        "id": 1,
        "body": "А ви знали? З 1991 року в європейських країнах морква вважається не овочем, а фруктом."
    },

    {
        "id": 2,
        "body": "А ви знали? Тільки на 20% фотографій розміщених в інтернеті ви можете побачити щось інше крім оголених жінок."
    },

    {
        "id": 3,
        "body": "А ви знали? У місяці, який починається з неділі, обов'язково буде п'ятниця 13-е."
    }
]